…
``` r
faltantes %>% select(ID, Desc) %>%
  unnest_tokens(Palabras, Desc) %>% 
  anti_join(custom_stop_words) %>%
  count(Palabras, sort = TRUE)
```

    ## Joining, by = "Palabras"

    ## # A tibble: 132 x 2
    ##    Palabras         n
    ##    <chr>        <int>
    ##  1 inundaciones    40
    ##  2 río             34
    ##  3 huracán         26
    ##  4 caribe          22
    ##  5 tropical        22
    ##  6 vertiente       14
    ##  7 zona            14
    ##  8 tormenta        12
    ##  9 baja            10
    ## 10 presión         10
    ## # ... with 122 more rows
…
faltantes2 %>% summarise(n())
```

    ## # A tibble: 1 x 1
    ##   `n()`
    ##   <int>
    ## 1    39

``` r
faltantes2
```

    ## # A tibble: 39 x 15
    ##    FECHA      `TÍTULO DEL EVE… OBSERVACIONES `REFERENCIA BIB… TIPO     ID
    ##    <date>     <chr>            <chr>         <chr>            <chr> <int>
    ##  1 1993-12-09 Deslizamiento e… Deslizamient… "Madrigal, Sala… Desl…     8
    ##  2 1949-12-07 Inundaciones en… Inundaciones… Montero y Salaz… Hidr…    21
    ##  3 1954-10-20 Huracán Hazel.   Huracán Haze… Montero y Salaz… Hidr…    29
    ##  4 1955-11-02 Inundaciones en… Inundaciones… Montero y Salaz… Hidr…    33
    ##  5 1963-12-01 Inundaciones en… Inundaciones… Montero y Salaz… Hidr…    40
    ##  6 1969-10-07 Inundaciones en… Inundaciones… Montero y Salaz… Hidr…    46
    ##  7 1970-04-10 Inundaciones en… Inundaciones… Montero y Salaz… Hidr…    49
    ##  8 1971-08-12 Inundaciones en… Inundaciones… Montero y Salaz… Hidr…    50
    ##  9 1971-09-19 Huracán Irene.   Huracán Iren… Montero y Salaz… Hidr…    51
    ## 10 1978-08-03 Huracán Caribe.  Huracán Cari… Decreto de Emer… Hidr…    55
    ## # ... with 29 more rows, and 9 more variables: Desc <chr>,
    ## #   GUANACASTE <lgl>, SANJOSE <lgl>, HEREDIA <lgl>, ALAJUELA <lgl>,
    ## #   PUNTARENAS <lgl>, CARTAGO <lgl>, LIMON <lgl>, total <int>

Revisando las descripciones de los últimos que quedan por asignar vemos
que muchos son huracanes, tormentas (tropicales) y sistemas de baja
(presión):

``` r
faltantes2 %>% select(ID, Desc) %>%
  unnest_tokens(Palabras, Desc) %>% 
  anti_join(custom_stop_words) %>%
  count(Palabras, sort = TRUE)
```

    ## Joining, by = "Palabras"

    ## # A tibble: 112 x 2
    ##    Palabras         n
    ##    <chr>        <int>
    ##  1 inundaciones    28
    ##  2 río             28
    ##  3 huracán         24
    ##  4 tropical        20
    ##  5 caribe          10
    ##  6 tormenta        10
    ##  7 baja             8
    ##  8 presión          8
    ##  9 sistema          8
    ## 10 grande           6
    ## # ... with 102 more rows
…
